{
    "wallet": {
        "keystore": "../../key.json",
        "password": "BepPassword01@"
    },
    "networktype": 1,
    "balancermode": 1,
    "logfile": "log.txt",
    "debugseed": "159.89.252.210",
    "balancinglimit": 0.01,
	"bnbreserve": 1,
	"___comment": [ "networktype: 1 - Test, 2 - Chaos, 3 - Main",
        "balancermode: 1 - balancing, 2 - arbitrage",
        "debugseed: if emty string, the standard seeding will happen. If IP specified, the bot connects to this address",
        "balancinglimit - (amount in BNB) if the required amount for pool balancing is smaller then we ignore the imbalance",
		"bnbreserve - BNB reserved for fees - at least this amount we want always keep in wallet"]
}